{
    "name": "First level",
    "gold": 1000,
    "lifes": 20,
    "waves": [
        { 
            "num": 1,
            "monsters": [
                {
                    "name": "monster1",
                    "delay": 1
                },
                {
                    "name": "monster1",
                    "delay": 2
                },
                {
                    "name": "monster1",
                    "delay": 3
                },
                {
                    "name": "monster1",
                    "delay": 5
                },
                {
                    "name": "monster1",
                    "delay": 6
                },
                {
                    "name": "monster1",
                    "delay": 7
                },
                {
                    "name": "monster1",
                    "delay": 9
                },
                {
                    "name": "monster1",
                    "delay": 10
                },
                {
                    "name": "monster1",
                    "delay": 11
                },
                {
                    "name": "monster1",
                    "delay": 13
                },
                {
                    "name": "monster1",
                    "delay": 14
                },
                {
                    "name": "monster1",
                    "delay": 15
                }
            ]
        },
        {
            "num": 2,
            "monsters": [
                {
                    "name": "monster1",
                    "delay": 1
                },
                {
                    "name": "monster1",
                    "delay": 1.5
                },
                {
                    "name": "monster2",
                    "delay": 2
                },
                {
                    "name": "monster1",
                    "delay": 5
                },
                {
                    "name": "monster1",
                    "delay": 5.5
                },
                {
                    "name": "monster2",
                    "delay": 6
                },
                {
                    "name": "monster1",
                    "delay": 9
                },
                {
                    "name": "monster1",
                    "delay": 9.5
                },
                {
                    "name": "monster2",
                    "delay": 10
                },
                {
                    "name": "monster1",
                    "delay": 13
                },
                {
                    "name": "monster1",
                    "delay": 13.5
                },
                {
                    "name": "monster2",
                    "delay": 14
                },
                {
                    "name": "monster1",
                    "delay": 17
                },
                {
                    "name": "monster1",
                    "delay": 17.5
                },
                {
                    "name": "monster2",
                    "delay": 18
                },
                {
                    "name": "monster1",
                    "delay": 21
                },
                {
                    "name": "monster1",
                    "delay": 21.5
                },
                {
                    "name": "monster2",
                    "delay": 22
                }
            ]
        }
    ]
}
